[gd_scene load_steps=2 format=3 uid="uid://c66hdqgqcbqwm"]

[ext_resource type="Script" path="res://plugins/minigames/haunted_dreams/player.gd" id="1"]

[node name="Player" type="CharacterBody3D" groups=["player"]]
script = ExtResource("1")

[node name="Shape3D" type="CollisionShape3D" parent="."]
transform = Transform3D(1, 0, 0, 0, -4.37114e-08, -1, 0, 1, -4.37114e-08, 0, 0.4, 0)

[node name="Model" type="Node3D" parent="."]

[node name="Navigation" type="NavigationAgent3D" parent="."]
