[gd_scene load_steps=4 format=3 uid="uid://b4vw6b04182os"]

[ext_resource type="PackedScene" uid="uid://3wyygh7gi87" path="res://plugins/minigames/dungeon_parkour/Dungeon Arena/exported/Floor01Triangle.escn" id="2"]
[ext_resource type="Material" uid="uid://bpw6d625t0cfs" path="res://plugins/minigames/dungeon_parkour/Dungeon Arena/material.tres" id="2_6ftou"]

[sub_resource type="ConcavePolygonShape3D" id="1"]
data = PackedVector3Array(1, 1, -0.9674, 1, 1, -0.4474, -1, 1, -0.4474, -1, 1, -0.9674, -1, 1, -0.4474, -1, -1, -0.4474, -1, 1, -0.3674, -1, 1, 0.9926, -1, -1, 0.9926, 1, 1, -0.3674, 1, 1, 0.9926, -1, 1, 0.9926, -0.96, 0.96, -1.0074, 0.91, 0.96, -1.0074, 1, 1, -0.9674, -0.96, -0.91, -1.0074, -0.96, 0.96, -1.0074, -1, 1, -0.9674, -0.9849, -0.9599, -0.4074, -0.9849, 0.9849, -0.4074, -1, 1, -0.3674, -0.9849, 0.9849, -0.4074, 0.9599, 0.9849, -0.4074, 1, 1, -0.3674, -0.96, 0.96, -1.0074, -0.96, -0.91, -1.0074, 0.91, 0.96, -1.0074, -1, 1, -0.4474, 1, 1, -0.4474, 0.9599, 0.9849, -0.4074, -1, -1, -0.4474, -1, 1, -0.4474, -0.9849, 0.9849, -0.4074, -1, 1, 0.9926, 1, 1, 0.9926, -1, -1, 0.9926, -1, -1, -0.9674, -1, -1, -0.4474, 1, 1, -0.4474, 1, 1, -0.9674, 0.91, 0.96, -1.0074, -0.96, -0.91, -1.0074, -1, -1, -0.3674, -1, -1, 0.9926, 1, 1, 0.9926, 0.9599, 0.9849, -0.4074, -0.9849, -0.9599, -0.4074, -1, -1, -0.4474, 1, 1, -0.3674, -1, -1, -0.3674, -0.9849, -0.9599, -0.4074, 1, 1, -0.9674, -1, 1, -0.4474, -1, 1, -0.9674, -1, 1, -0.9674, -1, -1, -0.4474, -1, -1, -0.9674, -1, 1, -0.3674, -1, -1, 0.9926, -1, -1, -0.3674, 1, 1, -0.3674, -1, 1, 0.9926, -1, 1, -0.3674, -0.96, 0.96, -1.0074, 1, 1, -0.9674, -1, 1, -0.9674, -0.96, -0.91, -1.0074, -1, 1, -0.9674, -1, -1, -0.9674, -0.9849, -0.9599, -0.4074, -1, 1, -0.3674, -1, -1, -0.3674, -0.9849, 0.9849, -0.4074, 1, 1, -0.3674, -1, 1, -0.3674, -1, 1, -0.4474, 0.9599, 0.9849, -0.4074, -0.9849, 0.9849, -0.4074, -1, -1, -0.4474, -0.9849, 0.9849, -0.4074, -0.9849, -0.9599, -0.4074, -1, -1, -0.9674, 1, 1, -0.4474, 1, 1, -0.9674, 1, 1, -0.9674, -0.96, -0.91, -1.0074, -1, -1, -0.9674, -1, -1, -0.3674, 1, 1, 0.9926, 1, 1, -0.3674, 0.9599, 0.9849, -0.4074, -1, -1, -0.4474, 1, 1, -0.4474, 1, 1, -0.3674, -0.9849, -0.9599, -0.4074, 0.9599, 0.9849, -0.4074)

[node name="Floor01Triangle" instance=ExtResource("2")]

[node name="StaticBody3D" type="StaticBody3D" parent="." index="0"]
transform = Transform3D(1, 0, 0, 0, -4.37114e-08, -1, 0, 1, -4.37114e-08, 0, 0, 0)

[node name="CollisionShape3D" type="CollisionShape3D" parent="StaticBody3D" index="0"]
shape = SubResource("1")

[node name="Floor01Triangle" parent="." index="1"]
transform = Transform3D(1, 0, 0, 0, -4.37114e-08, -1, 0, 1, -4.37114e-08, 0, 0, 0)
surface_material_override/0 = ExtResource("2_6ftou")
