[gd_resource type="StandardMaterial3D" load_steps=2 format=3 uid="uid://b2jcgg7xgw5dj"]

[ext_resource type="Texture2D" uid="uid://c0l55l2xwnllp" path="res://assets/textures/wood_planks/wood2_COLOR.jpg" id="1_6x318"]

[resource]
resource_name = "floor"
cull_mode = 2
diffuse_mode = 3
specular_mode = 1
albedo_texture = ExtResource("1_6x318")
roughness = 0.5
uv1_scale = Vector3(5, 5, 1)
