[gd_scene load_steps=4 format=3 uid="uid://b1hc8lwjvhb77"]

[ext_resource type="PackedScene" uid="uid://dkithg2qmq6t6" path="res://plugins/minigames/harvest_food/plants/radish_rotten.escn" id="1"]

[sub_resource type="Animation" id="1"]
resource_name = "show"
tracks/0/type = "value"
tracks/0/imported = false
tracks/0/enabled = true
tracks/0/path = NodePath("Icosphere:position")
tracks/0/interp = 1
tracks/0/loop_wrap = true
tracks/0/keys = {
"times": PackedFloat32Array(0, 1),
"transitions": PackedFloat32Array(1, 1),
"update": 0,
"values": [Vector3(0.05, -0.35, 0), Vector3(0.05, 1.65, 0)]
}
tracks/1/type = "value"
tracks/1/imported = false
tracks/1/enabled = true
tracks/1/path = NodePath("Cylinder:position")
tracks/1/interp = 1
tracks/1/loop_wrap = true
tracks/1/keys = {
"times": PackedFloat32Array(0, 1),
"transitions": PackedFloat32Array(1, 1),
"update": 0,
"values": [Vector3(0, 0, 0), Vector3(0, 2, 0)]
}

[sub_resource type="AnimationLibrary" id="AnimationLibrary_qaahd"]
_data = {
"show": SubResource("1")
}

[node name="Plant" instance=ExtResource("1")]
transform = Transform3D(0.75, 0, 0, 0, 0.75, 0, 0, 0, 0.75, 0, 0, 0)

[node name="Icosphere" parent="." index="0"]
transform = Transform3D(1, 0, 0, 0, 1, 0, 0, 0, 1, 0.05, -0.35, 0)

[node name="AnimationPlayer" type="AnimationPlayer" parent="." index="2"]
libraries = {
"": SubResource("AnimationLibrary_qaahd")
}
