[gd_scene load_steps=6 format=3 uid="uid://gaf2papev77h"]

[ext_resource type="Script" path="res://common/scenes/board_logic/controller/itemselection.gd" id="1"]
[ext_resource type="Shader" path="res://assets/shaders/outline.gdshader" id="2"]

[sub_resource type="ShaderMaterial" id="2"]
shader = ExtResource("2")
shader_parameter/width = 16.0
shader_parameter/outline_color = Color(0.352941, 0.788235, 0.866667, 1)
shader_parameter/enable_shader = false

[sub_resource type="ShaderMaterial" id="3"]
shader = ExtResource("2")
shader_parameter/width = 16.0
shader_parameter/outline_color = Color(0.352941, 0.788235, 0.866667, 1)
shader_parameter/enable_shader = false

[sub_resource type="ShaderMaterial" id="4"]
shader = ExtResource("2")
shader_parameter/width = 16.0
shader_parameter/outline_color = Color(0.352941, 0.788235, 0.866667, 1)
shader_parameter/enable_shader = false

[node name="ItemSelection" type="ItemList"]
visible = false
anchors_preset = 8
anchor_left = 0.5
anchor_top = 0.5
anchor_right = 0.5
anchor_bottom = 0.5
offset_left = -320.0
offset_top = -90.4719
offset_right = 320.0
offset_bottom = 89.5281
script = ExtResource("1")

[node name="Item1" type="TextureButton" parent="."]
material = SubResource("2")
layout_mode = 0
anchor_left = 0.5
anchor_top = 0.5
anchor_right = 0.5
anchor_bottom = 0.5
offset_left = -224.0
offset_top = -64.0
offset_right = -96.0
offset_bottom = 63.9999
ignore_texture_size = true
stretch_mode = 5

[node name="Item2" type="TextureButton" parent="."]
material = SubResource("3")
layout_mode = 0
anchor_left = 0.5
anchor_top = 0.5
anchor_right = 0.5
anchor_bottom = 0.5
offset_left = -64.0
offset_top = -64.0
offset_right = 64.0
offset_bottom = 64.0
ignore_texture_size = true
stretch_mode = 5

[node name="Item3" type="TextureButton" parent="."]
material = SubResource("4")
layout_mode = 0
anchor_left = 0.5
anchor_top = 0.5
anchor_right = 0.5
anchor_bottom = 0.5
offset_left = 100.495
offset_top = -68.4949
offset_right = 228.495
offset_bottom = 59.5051
ignore_texture_size = true
stretch_mode = 5
