[gd_resource type="StandardMaterial3D" load_steps=2 format=2]

[ext_resource path="res://plugins/items/cookie_steal_trap/material.png" type="Texture2D" id=1]

[resource]
albedo_texture = ExtResource( 1 )
roughness = 0.7
emission_enabled = true
emission = Color( 0, 0, 0, 1 )
emission_energy = 1.0
emission_operator = 0
emission_on_uv2 = false
emission_texture = ExtResource( 1 )
ao_enabled = true
ao_light_affect = 0.0
ao_on_uv2 = false
ao_texture_channel = 0
