[gd_scene load_steps=2 format=3 uid="uid://dtq5mvlbt7vhi"]

[ext_resource type="Script" path="res://plugins/minigames/harvest_food/player.gd" id="1"]

[node name="CharacterBody3D" type="CharacterBody3D" groups=["players"]]
script = ExtResource("1")

[node name="Model" type="Node3D" parent="."]

[node name="Shape3D" type="CollisionShape3D" parent="."]
