[gd_scene format=3 uid="uid://mjwxeax7p4iv"]

[node name="HBoxContainer" type="HBoxContainer"]
anchor_right = 1.0
anchor_bottom = 1.0
offset_right = -836.0
offset_bottom = -696.0
__meta__ = {
"_edit_use_anchors_": false
}

[node name="Actions" type="GridContainer" parent="."]
offset_right = 250.0
offset_bottom = 24.0
custom_minimum_size = Vector2(250, 0)

[node name="Add" type="MenuButton" parent="."]
offset_left = 254.0
offset_right = 274.0
offset_bottom = 24.0
text = "+"
items = ["spacer", null, 0, false, false, 0, 0, null, "", false, "up", null, 0, false, false, 1, 0, null, "", false, "down", null, 0, false, false, 2, 0, null, "", false, "left", null, 0, false, false, 3, 0, null, "", false, "right", null, 0, false, false, 4, 0, null, "", false, "action1", null, 0, false, false, 5, 0, null, "", false, "action2", null, 0, false, false, 6, 0, null, "", false, "action3", null, 0, false, false, 7, 0, null, "", false, "action4", null, 0, false, false, 8, 0, null, "", false]

[node name="Text" type="LineEdit" parent="."]
offset_left = 278.0
offset_right = 336.0
offset_bottom = 24.0
size_flags_horizontal = 3

[node name="Team" type="OptionButton" parent="."]
offset_left = 340.0
offset_right = 445.0
offset_bottom = 24.0
text = "Both Teams"
items = ["Both Teams", null, false, 0, null, "Team Red", null, false, 1, null, "Team Blue", null, false, 2, null]
selected = 0

[node name="Remove" type="Button" parent="."]
offset_left = 449.0
offset_right = 468.0
offset_bottom = 24.0
text = "x"

[connection signal="pressed" from="Remove" to="." method="queue_free"]
