[gd_scene format=3 uid="uid://gmqdyouk38j3"]

[node name="LobbyPlayer" type="VBoxContainer"]
offset_left = 14.0
offset_top = 14.0
offset_right = 314.0
offset_bottom = 142.0
size_flags_vertical = 7
alignment = 1

[node name="PanelContainer" type="PanelContainer" parent="."]
layout_mode = 2

[node name="HBoxContainer" type="HBoxContainer" parent="PanelContainer"]
layout_mode = 2
size_flags_horizontal = 7
size_flags_vertical = 7
alignment = 1

[node name="Character" type="Button" parent="PanelContainer/HBoxContainer"]
custom_minimum_size = Vector2(128, 128)
layout_mode = 2
expand_icon = true

[node name="Name" type="LineEdit" parent="PanelContainer/HBoxContainer"]
layout_mode = 2
size_flags_horizontal = 7
size_flags_vertical = 7
text = "<NAME>"

[node name="Remove" type="Button" parent="PanelContainer/HBoxContainer"]
layout_mode = 2
text = "x"
