# Blender 3.4.1
# www.blender.org
mtllib ice.mtl
o Cube
v 2.500000 -2.000000 -2.500000
v 2.500000 -2.000000 2.500000
v -2.500000 -2.000000 2.500000
v -2.499999 -2.000000 -2.500001
v 2.500001 2.000000 -2.954209
v 3.280281 2.000000 3.153517
v -2.866341 2.000000 3.291060
v -3.275605 2.000000 -2.864599
v -1.616055 2.000000 3.144524
v -0.200191 2.000000 3.550423
v 0.819886 2.000000 4.634500
v 1.802870 2.000000 3.326904
v 3.920028 2.000000 1.690125
v 3.180805 2.000000 0.589675
v 3.674896 2.000000 -0.615871
v 3.128446 2.000000 -1.728682
v 1.517018 2.000000 -2.761186
v 0.571128 2.000000 -3.493165
v -0.560230 2.000000 -3.677134
v -1.543213 2.000000 -3.021099
v -4.001839 2.000000 -1.275908
v -4.604859 2.000000 -0.255831
v -4.492138 2.000000 0.652965
v -4.142104 2.000000 1.413386
v -3.424607 1.981453 2.062526
v 2.908788 -1.890466 -2.076791
v 2.731054 -1.938090 -1.083171
v 2.908789 -1.890466 0.112854
v 2.571094 -1.980951 0.977672
v 3.104296 -1.838081 1.621685
v 1.877931 -2.166682 2.904808
v 1.309182 -2.319078 2.407998
v 0.562698 -2.519097 2.812806
v 0.047269 -2.657205 2.297595
v -0.592573 -2.828650 2.776005
v -1.090229 -2.961996 2.150392
v -2.640658 -2.037689 1.605481
v -2.037840 -1.876165 1.147820
v -2.118216 -1.897701 0.024471
v -1.595774 -1.757713 -0.121148
v -1.676150 -1.779250 -1.182089
v -2.319156 -1.951542 -1.639750
v -1.575679 -1.752330 -3.124084
v -1.093424 -1.623111 -2.437593
v -0.530795 -1.472355 -2.936859
v 0.152399 -1.289294 -2.146354
v 0.936062 -1.079313 -2.500000
v 1.659443 -0.885485 -2.229564
vn -0.0000 1.0000 -0.0000
vn 0.0442 0.9988 -0.0204
vn -0.0017 0.9999 -0.0143
vn -0.0331 0.9987 0.0382
vn -0.5236 -0.5523 0.6487
vn 0.2588 -0.9659 -0.0000
vn -0.6618 -0.7467 -0.0669
vn 0.2374 -0.9381 -0.2523
vn 0.3035 -0.9215 -0.2422
vn -0.2468 -0.7648 -0.5951
vn -0.5843 -0.7636 -0.2748
vn 0.6021 -0.1796 -0.7780
vn -0.4248 -0.1021 -0.8995
vn 0.1538 -0.2868 -0.9456
vn -0.5461 -0.1791 -0.8183
vn -0.5178 -0.1767 -0.8370
vn -0.9629 -0.1674 0.2118
vn -0.7567 -0.4768 -0.4473
vn -0.7786 -0.6200 0.0966
vn -0.7718 -0.5274 0.3553
vn -0.6245 -0.3856 0.6792
vn -0.8870 -0.2192 0.4064
vn -0.9798 -0.1212 0.1592
vn 0.1144 -0.1826 0.9765
vn -0.7782 -0.0373 0.6270
vn -0.7090 -0.2286 0.6671
vn 0.7808 -0.2141 0.5870
vn 0.1160 -0.0980 0.9884
vn 0.5738 -0.2399 0.7831
vn 0.8193 -0.2445 0.5186
vn 0.7770 -0.1779 -0.6039
vn 0.9196 -0.1105 0.3769
vn 0.8859 -0.1607 -0.4350
vn 0.6259 -0.1873 -0.7571
vn -0.6091 -0.7795 -0.1463
vn -0.0856 -0.9500 -0.3002
vn 0.0997 -0.9527 -0.2870
vn 0.4748 -0.8443 -0.2486
vn 0.0368 -0.9553 -0.2932
vn 0.5207 -0.8195 -0.2395
vn -0.5391 -0.8336 0.1199
vn -0.7180 -0.6683 -0.1945
vn 0.3811 -0.1493 -0.9124
vn -0.1893 -0.1869 -0.9640
vn -0.2629 -0.4533 -0.8517
vn 0.7648 -0.1281 -0.6313
vn 0.1697 0.0256 -0.9852
vn -0.0899 0.0281 -0.9956
vn -0.8587 -0.3295 -0.3925
vn -0.5025 -0.2890 0.8148
vn -0.7798 -0.6219 0.0717
vn -0.2667 -0.0071 -0.9637
vn -0.8745 -0.4797 0.0718
vn -0.6000 -0.0261 -0.7996
vn 0.1171 -0.1832 0.9761
vn -0.2690 -0.2165 0.9385
vn 0.6191 -0.1732 0.7660
vn -0.6570 -0.2282 0.7185
vn 0.5172 -0.3451 0.7832
vn -0.6417 -0.0887 0.7618
vn 0.8981 -0.1979 0.3926
vn 0.8188 -0.1642 -0.5500
vn 0.9298 -0.1081 0.3518
vn 0.9671 -0.2157 -0.1351
vn 0.8335 -0.3501 -0.4274
vt 0.456517 0.999906
vt 0.933780 0.498604
vt 0.505535 0.135396
vt 0.000094 0.579659
vt 0.153241 0.208834
vt 0.401429 0.000094
vt 0.079356 0.072510
vt 0.489702 0.881354
vt 0.893022 0.391773
vt 0.876940 0.869958
vt 0.933780 0.855725
vt 0.990038 0.420966
vt 0.879617 0.138683
vt 0.510590 0.498311
vt 0.153153 0.212264
vt 0.000147 0.539568
vt 0.381151 0.400372
vt 0.000147 0.424735
vt 0.194905 0.943829
vt 0.491659 0.520516
vt 0.302657 0.211321
vt 0.088920 0.436454
vt 0.463600 0.142783
vt 0.191236 0.458990
vt 0.567980 0.000099
vt 0.289547 0.498311
vt 0.702952 0.139845
vt 0.405370 0.487138
vt 0.976412 0.301808
vt 0.623936 0.490636
vt 0.905373 0.442316
vt 0.715810 0.469395
vt 0.981232 0.577181
vt 0.807969 0.459633
vt 0.933094 0.716328
vt 0.893927 0.439943
vt 0.758262 0.861578
vt 0.862523 0.568702
vt 0.657477 0.961679
vt 0.779278 0.551151
vt 0.526823 0.999901
vt 0.698255 0.542052
vt 0.401376 0.936949
vt 0.614404 0.536093
vt 0.086085 0.767200
vt 0.367494 0.515852
vt 0.000099 0.655787
vt 0.284988 0.498604
vt 0.000099 0.547026
vt 0.220261 0.505923
vt 0.030163 0.452260
vt 0.161503 0.515569
vt 0.105250 0.365228
vt 0.096116 0.537111
vt 0.382290 0.989947
vt 0.327053 0.877424
vt 0.787055 0.102168
vt 0.203369 0.792418
vt 0.703142 0.121511
vt 0.155819 0.686672
vt 0.636621 0.120595
vt 0.051270 0.704072
vt 0.581845 0.147013
vt 0.000095 0.484095
vt 0.453363 0.118519
vt 0.091555 0.453158
vt 0.402739 0.096018
vt 0.091800 0.343418
vt 0.342113 0.079008
vt 0.179483 0.312894
vt 0.298246 0.048781
vt 0.164991 0.211381
vt 0.243072 0.028345
vt 0.263715 0.188984
vt 0.192290 0.000147
vt 0.084984 0.272507
vt 0.501487 0.051316
vt 0.118066 0.899588
vt 0.500175 0.148415
vt 0.173211 0.891606
vt 0.618593 0.222448
vt 0.253337 0.892605
vt 0.592673 0.288170
vt 0.293776 0.895416
vt 0.698999 0.366296
vt 0.369319 0.890450
vt 0.796912 0.339860
vt 0.427050 0.883132
vt 0.872439 0.533777
vt 0.570763 0.866950
vt 0.622027 0.899588
vt 0.766830 0.525756
vt 0.788741 0.619358
vt 0.648716 0.851316
vt 0.660934 0.654668
vt 0.724575 0.857121
vt 0.649815 0.765552
vt 0.784588 0.835052
vt 0.577347 0.834952
vt 0.841649 0.827391
vt 0.999853 0.595554
vt 0.919934 0.161852
s 0
usemtl Material
f 20/43/1 8/19/1 21/45/1
f 22/47/1 23/49/1 21/45/1
f 21/45/1 23/49/1 20/43/1
f 24/51/2 25/53/2 23/49/2
f 9/21/3 25/53/3 7/15/3
f 10/23/1 20/43/1 23/49/1
f 10/23/1 23/49/1 9/21/1
f 23/49/4 25/53/4 9/21/4
f 11/25/1 12/27/1 10/23/1
f 20/43/1 12/27/1 19/41/1
f 20/43/1 10/23/1 12/27/1
f 19/41/1 12/27/1 18/39/1
f 18/39/1 12/27/1 17/37/1
f 12/27/1 6/13/1 17/37/1
f 16/35/1 5/10/1 17/37/1
f 16/35/1 17/37/1 15/33/1
f 15/33/1 17/37/1 14/31/1
f 17/37/1 6/13/1 14/31/1
f 13/29/1 14/31/1 6/13/1
f 26/55/5 48/99/5 1/1/5
f 30/62/6 31/64/6 32/66/6
f 29/60/7 48/99/7 27/56/7
f 33/68/8 46/95/8 48/99/8
f 35/72/9 44/92/9 46/95/9
f 36/74/10 37/77/10 38/79/10
f 40/83/11 36/74/11 38/79/11
f 41/85/6 4/9/6 44/92/6
f 17/38/12 47/98/12 18/40/12
f 48/101/13 5/11/13 1/2/13
f 47/98/14 19/42/14 18/40/14
f 19/42/15 45/94/15 20/44/15
f 43/90/6 45/94/6 44/91/6
f 8/20/16 43/90/16 4/8/16
f 42/88/17 8/20/17 4/8/17
f 21/46/18 41/86/18 22/48/18
f 22/48/19 40/84/19 23/50/19
f 23/50/20 39/82/20 24/52/20
f 24/52/21 38/80/21 25/54/21
f 25/54/22 37/78/22 7/16/22
f 7/17/23 37/76/23 3/5/23
f 3/7/24 9/22/24 7/18/24
f 36/75/25 35/73/25 10/24/25
f 10/24/26 33/69/26 11/26/26
f 11/26/27 32/67/27 12/28/27
f 12/28/28 31/65/28 6/14/28
f 6/14/29 31/65/29 2/3/29
f 30/63/30 6/14/30 2/3/30
f 14/32/31 30/63/31 29/61/31
f 14/32/32 28/59/32 15/34/32
f 15/34/33 27/57/33 16/36/33
f 48/102/34 16/36/34 27/57/34
f 26/55/35 27/56/35 48/99/35
f 32/66/6 29/60/6 30/62/6
f 30/62/6 2/4/6 31/64/6
f 27/56/6 28/58/6 29/60/6
f 29/60/36 32/66/36 48/99/36
f 48/99/37 32/66/37 33/68/37
f 33/68/38 34/70/38 46/95/38
f 46/95/6 47/97/6 48/99/6
f 46/95/39 34/70/39 35/72/39
f 35/72/40 36/74/40 44/92/40
f 44/92/6 45/93/6 46/95/6
f 36/74/41 3/6/41 37/77/41
f 38/79/6 39/81/6 40/83/6
f 40/83/42 44/92/42 36/74/42
f 44/92/6 40/83/6 41/85/6
f 41/85/6 42/87/6 4/9/6
f 4/9/6 43/89/6 44/92/6
f 17/38/43 48/100/43 47/98/43
f 48/101/44 17/38/44 5/11/44
f 47/98/45 46/96/45 19/42/45
f 19/42/46 46/96/46 45/94/46
f 43/90/47 20/44/47 45/94/47
f 8/20/48 20/44/48 43/90/48
f 42/88/49 21/46/49 8/20/49
f 21/46/50 42/88/50 41/86/50
f 22/48/51 41/86/51 40/84/51
f 23/50/52 40/84/52 39/82/52
f 24/52/53 39/82/53 38/80/53
f 25/54/54 38/80/54 37/78/54
f 3/7/55 36/75/55 9/22/55
f 10/24/56 9/22/56 36/75/56
f 35/73/57 34/71/57 10/24/57
f 10/24/58 34/71/58 33/69/58
f 11/26/59 33/69/59 32/67/59
f 12/28/60 32/67/60 31/65/60
f 30/63/61 13/30/61 6/14/61
f 14/32/62 13/30/62 30/63/62
f 14/32/63 29/61/63 28/59/63
f 15/34/64 28/59/64 27/57/64
f 48/102/65 5/12/65 16/36/65
