[gd_resource type="StandardMaterial3D" load_steps=3 format=3 uid="uid://j0h5w47ft273"]

[ext_resource type="Texture2D" uid="uid://d1f3xm4gr0i15" path="res://plugins/characters/Beastie/beastie_tex.png" id="1"]

[sub_resource type="StandardMaterial3D" id="1"]
cull_mode = 1
shading_mode = 0
albedo_color = Color(0, 0, 0, 1)
grow = true
grow_amount = 0.02

[resource]
resource_local_to_scene = true
next_pass = SubResource("1")
diffuse_mode = 3
specular_mode = 1
albedo_texture = ExtResource("1")
roughness = 0.75
